addnode=45.77.229.41:19666
addnode=139.180.129.163:19666
addnode=95.179.143.89:19666
addnode=199.247.9.113:19666
addnode=217.69.8.66:19666
addnode=94.177.229.139:19666
addnode=37.187.140.168:19666
addnode=95.216.198.122:19666
addnode=95.217.5.69:19666
addnode=95.216.80.135:19666
addnode=54.37.242.170:19666
addnode=95.217.9.25:19666
addnode=95.216.158.243:19666
addnode=45.77.46.164:19666
addnode=95.217.48.254:19666
addnode=185.45.193.156:19666
addnode=95.217.5.58:19666
addnode=95.216.80.132:19666
addnode=185.241.52.250:19666
addnode=77.82.87.210:19666
addnode=95.216.204.10:19666
addnode=54.37.242.168:19666
addnode=95.217.48.253:19666
addnode=95.217.48.252:19666
addnode=95.179.251.83:19666
addnode=83.163.49.49:19666
addnode=154.208.178.9:19666
addnode=95.216.119.130:19666
addnode=95.216.119.129:19666
addnode=155.138.220.69:19666
addnode=155.138.192.67:19666
addnode=159.69.107.13:19666
addnode=95.216.126.239:19666
addnode=207.180.193.25:19666
addnode=154.208.178.4:19666
addnode=149.129.55.109:19666
addnode=149.129.73.217:19666
addnode=154.208.178.3:19666
addnode=118.24.186.61:19666
addnode=159.69.106.114:19666
addnode=185.142.53.145:19666
addnode=167.86.85.238:19666
addnode=81.2.255.27:19666
addnode=95.216.58.225:19666
addnode=93.104.213.141:19666
addnode=154.208.178.9:19666
addnode=223.99.211.201:19666
addnode=95.216.239.2:19666
addnode=123.132.232.10:19666
addnode=141.101.14.64:19666
addnode=80.211.11.153:19666
addnode=80.211.236.217:19666
addnode=155.138.235.141:19666
addnode=155.138.193.222:19666
addnode=107.191.53.12:19666
addnode=39.106.61.176:19666
addnode=45.32.214.65:19666
addnode=155.138.194.62:19666
addnode=155.138.234.36:19666
addnode=45.32.215.23:19666
addnode=155.138.174.107:19666
addnode=108.61.156.58:19666
addnode=95.216.119.130:19666
addnode=93.104.213.141:19666
addnode=159.69.106.113:19666
addnode=116.203.129.119:19666
addnode=144.202.24.44:19666
addnode=95.216.230.194:19666
addnode=194.135.85.200:19666
addnode=164.68.112.222:19666
addnode=188.40.174.161:19666
addnode=212.24.96.197:19666
addnode=159.69.106.78:19666
addnode=159.69.106.135:19666
addnode=155.138.220.203:19666
addnode=154.208.178.5:19666
addnode=159.69.106.229:19666
addnode=159.69.106.121:19666
addnode=159.69.107.24:19666
addnode=159.69.122.52:19666
addnode=8.14.26.1:19666
addnode=80.211.137.253:19666
addnode=178.186.160.131:19666
addnode=95.216.62.33:19666
addnode=195.181.247.111:19666
addnode=188.40.187.66:19666
addnode=94.177.245.239:19666
addnode=89.40.127.53:19666
addnode=212.237.56.67:19666
addnode=95.216.231.129:19666
addnode=217.61.1.144:19666
addnode=154.221.18.75:19666
addnode=45.66.8.216:19666
addnode=95.179.161.0:19666
addnode=95.179.194.68:19666
addnode=95.179.254.111:19666
addnode=95.216.125.225:19666
